[
  {
    "id": "Advertising agency",
    "name": "Advertising agency"
  },
  {
    "id": "Casting company",
    "name": "Casting company"
  },
  {
    "id": "Event agency",
    "name": "Event agency"
  },
  {
    "id": "Production company",
    "name": "Production company"
  },
  {
    "id": "Talent agency",
    "name": "Talent agency"
  },
  {
    "id": "Filmschool",
    "name": "Filmschool"
  },
  {
    "id": "Theatre",
    "name": "Theatre"
  },
  {
    "id": "Freelance casting director",
    "name": "Freelance casting director"
  },
  {
    "id": "Freelance director",
    "name": "Freelance director"
  },
  {
    "id": "Freelance producer",
    "name": "Freelance producer"
  },
  {
    "id": "Freelance Journalist",
    "name": "Freelance Journalist"
  },
  {
    "id": "Other",
    "name": "Other"
  }
]
