[
  {
    "id": 0,
    "name": "Vit"
  },
  {
    "id": 1,
    "name": "Afroamerikan"
  },
  {
    "id": 2,
    "name": "Latinamerikan"
  },
  {
    "id": 3,
    "name": "Asiat"
  },
  {
    "id": 4,
    "name": "Sydasiat"
  },
  {
    "id": 5,
    "name": "Indian"
  },
  {
    "id": 6,
    "name": "Mellanöstlig"
  },
  {
    "id": 7,
    "name": "Sydostasiat"
  },
  {
    "id": 8,
    "name": "Blandad ras"
  },
  {
    "id": 9,
    "name": "Afrikansk härkomst"
  }
]
