[
  {"_star": "Star","name":"Star", "price": 25, "price_3": 75, "price_words": "25Dkr / month"},
  {"_superstar": "Superstar","name":"Superstar", "price": 35, "price_3": 105, "price_words": "35Dkr / month"},
  {"_free": "FREE","name":"FREE", "price": 35, "price_3": 105, "price_words": "35Dkr / month"}
]
