[
  {
    "id": 0,
    "name": "The Nerd"
  },
  {
    "id": 1,
    "name": "The Handyman or Handywoman"
  },
  {
    "id": 2,
    "name": "The Goth"
  },
  {
    "id": 3,
    "name": "The Sexy"
  },
  {
    "id": 4,
    "name": "The Gangster"
  },
  {
    "id": 5,
    "name": "The Average looking"
  },
  {
    "id": 7,
    "name": "The Model"
  },
  {
    "id": 8,
    "name": "The Geek / Goofy"
  },
  {
    "id": 9,
    "name": "The Giant"
  },
  {
    "id": 10,
    "name": "The Professor"
  },
  {
    "id": 11,
    "name": "The Strict Teacher"
  },
  {
    "id": 12,
    "name": "The Arrogant looking"
  },
  {
    "id": 13,
    "name": "The Artist/Boheme"
  },
  {
    "id": 14,
    "name": "The Partygirl or Playboy"
  },
  {
    "id": 17,
    "name": "The Comedian"
  },
  {
    "id": 20,
    "name": "The Rebel"
  },
  {
    "id": 21,
    "name": "The Brainy"
  },
  {
    "id": 22,
    "name": "The Drug Addict"
  },
  {
    "id": 23,
    "name": "The Depressed looking"
  },
  {
    "id": 24,
    "name": "The Good Friend"
  },
  {
    "id": 25,
    "name": "The Hippie"
  },
  {
    "id": 26,
    "name": "The Royal"
  },
  {
    "id": 27,
    "name": "The Businessman or woman"
  },
  {
    "id": 28,
    "name": "The Athlete"
  },
  {
    "id": 29,
    "name": "The XXL Bodybuilder"
  },
  {
    "id": 30,
    "name": "The skinny"
  },
  {
    "id": 31,
    "name": "The Fat One"
  },
  {
    "id": 32,
    "name": "The Warrior"
  },
  {
    "id": 33,
    "name": "The Parent"
  },
  {
    "id": 35,
    "name": "The Priest"
  },
  {
    "id": 36,
    "name": "The Santa Claus"
  },
  {
    "id": 37,
    "name": "The Hipster"
  },
  {
    "id": 38,
    "name": "The Hillbilly"
  },
  {
    "id": 39,
    "name": "The Police officer"
  },
  {
    "id": 40,
    "name": "Elvis"
  },
  {
    "id": 41,
    "name": "The Wise and Old"
  },
  {
    "id": 42,
    "name": "The Villain"
  },
  {
    "id": 43,
    "name": "The Viking"
  },
  {
    "id": 44,
    "name": "The Politician"
  },
  {
    "id": 45,
    "name": "The Feminine man or masculine woman"
  },
  {
    "id": 46,
    "name": "The Tattooed"
  },
  {
    "id": 47,
    "name": "The long-bearded"
  }

]
